%YAML 1.1
%TAG !u! tag:unity3d.com,2011:
--- !u!114 &11400000
MonoBehaviour:
  m_ObjectHideFlags: 0
  m_CorrespondingSourceObject: {fileID: 0}
  m_PrefabInstance: {fileID: 0}
  m_PrefabAsset: {fileID: 0}
  m_GameObject: {fileID: 0}
  m_Enabled: 1
  m_EditorHideFlags: 0
  m_Script: {fileID: 11500000, guid: 4f11136daadff0b44ac2278a314682ab, type: 3}
  m_Name: Empty
  m_EditorClassIdentifier: 
  serializedUdonProgramAsset: {fileID: 11400000, guid: e184e478cf050084b914cdce1ead2865,
    type: 2}
  udonAssembly: ".data_start\r\n\r\n    \r\n\r\n.data_end\r\n\r\n.code_start\r\n\r\n\r\n.code_end\r\n"
  assemblyError: 
  graphData:
    name: 
    description: 
    nodes: []
    updateOrder: 0
  graphElementData:
  - type: 3
    uid: b8f8c386-72f5-4386-81c5-715de6577c2c
    jsonData: '{"uid":"b8f8c386-72f5-4386-81c5-715de6577c2c","layout":{"serializedVersion":"2","x":-162.86148071289063,"y":-59.89093780517578,"width":327.6364440917969,"height":131.41249084472657},"title":"This
      space intentionally left blank. Use this graph if you just want to Synchronize
      the Position of a GameObject.","layer":0,"elementTypeColor":{"r":0.0,"g":0.0,"b":0.0,"a":0.0}}'
  - type: 5
    uid: cddf633d-d48d-4bda-954f-1d0dd8f691c2
    jsonData: '{"visible":false,"layout":{"serializedVersion":"2","x":13.0,"y":29.0,"width":214.0,"height":204.0}}'
  - type: 4
    uid: 46d8d053-df09-42aa-b83b-0d8d8bbabc43
    jsonData: '{"visible":false,"layout":{"serializedVersion":"2","x":10.0,"y":20.0,"width":0.0,"height":0.0}}'
  viewTransform:
    position: {x: 550.61536, y: 464.55908}
    scale: 2.0113573
  version: 1.0.0
  showAssembly: 0
